v 20130925 2
C 40000 40000 0 0 0 title-B.sym
C 44600 41100 1 0 0 ATmega16L-1.sym
{
T 47600 49700 5 10 1 1 0 6 1
refdes=U?
T 45000 49850 5 10 0 0 0 0 1
device=ATmega16L_DIP
T 45000 50050 5 10 0 0 0 0 1
footprint=DIP40
T 45000 51250 5 10 0 0 0 0 1
symversion=2.0
}
C 41600 43100 1 0 0 resistor-1.sym
{
T 41900 43500 5 10 0 0 0 0 1
device=RESISTOR
T 41800 43400 5 10 1 1 0 0 1
refdes=1k
}
C 43800 43400 1 180 0 led-1.sym
{
T 43000 42800 5 10 0 0 180 0 1
device=LED
T 43000 43000 5 10 1 1 180 0 1
refdes=LED?
T 43000 42600 5 10 0 0 180 0 1
symversion=0.1
}
C 41900 47500 1 0 0 input-1.sym
{
T 41900 47800 5 10 0 0 0 0 1
device=INPUT
}
C 42700 48100 1 180 0 output-1.sym
{
T 42600 47800 5 10 0 0 180 0 1
device=OUTPUT
}
C 42800 46000 1 0 0 5V-plus-1.sym
C 44000 44800 1 0 0 gnd-1.sym
C 44400 46100 1 180 0 resistor-1.sym
{
T 44100 45700 5 10 0 0 180 0 1
device=RESISTOR
T 44200 45800 5 10 1 1 180 0 1
refdes=10K
}
N 43500 46000 43000 46000 4
N 44400 46000 44700 46000 4
N 44700 45600 43000 45600 4
N 43000 45600 43000 46000 4
N 42700 45200 44700 45200 4
N 44100 45200 44100 45100 4
C 41900 48300 1 0 0 input-1.sym
{
T 41900 48600 5 10 0 0 0 0 1
device=INPUT
}
C 42700 48900 1 180 0 output-1.sym
{
T 42600 48600 5 10 0 0 180 0 1
device=OUTPUT
}
C 42700 47300 1 180 0 output-1.sym
{
T 42600 47000 5 10 0 0 180 0 1
device=OUTPUT
}
C 42700 46900 1 180 0 output-1.sym
{
T 42600 46600 5 10 0 0 180 0 1
device=OUTPUT
}
T 42000 48900 9 10 1 0 0 0 1
VCC
T 41900 48500 9 10 1 0 0 0 1
CS
T 42000 48100 9 10 1 0 0 0 1
MOSI
T 41900 47700 9 10 1 0 0 0 1
SCK
T 42000 47300 9 10 1 0 0 0 1
MISO
T 42000 46900 9 10 1 0 0 0 1
GND
N 42700 46800 42700 45200 4
N 42700 48400 43900 48400 4
N 43900 48400 43900 48800 4
N 43900 48800 44700 48800 4
N 44700 47200 43900 47200 4
N 43900 47200 43900 48000 4
N 43900 48000 42700 48000 4
N 44700 46800 43600 46800 4
N 43600 46800 43600 47200 4
N 43600 47200 42700 47200 4
N 44700 46400 43400 46400 4
N 43400 46400 43400 47600 4
N 43400 47600 42700 47600 4
C 42800 49200 1 0 0 5V-plus-1.sym
N 42700 48800 43000 48800 4
N 43000 48800 43000 49200 4
N 41700 49100 41700 46500 15
N 41700 46500 42900 46500 15
N 42900 46500 42900 49100 15
N 41700 49100 42900 49100 15
T 41600 47000 9 10 1 0 90 0 1
SD_CARD ADPATER
T 40200 49200 9 8 1 0 0 0 2
If not using SD_CARD ADAPTER supply
the SD +3.3V and adpat levels
C 41400 42600 1 0 0 gnd-1.sym
N 43800 43200 44700 43200 4
N 42900 43200 42500 43200 4
N 41600 43200 41500 43200 4
N 41500 43200 41500 42900 4
