00000000 W __heap_end
00000000 a __tmp_reg__
00000000 a __tmp_reg__
00000000 a __tmp_reg__
00000000 a __tmp_reg__
00000000 a __tmp_reg__
00000000 W __vector_default
00000000 T __vectors
00000001 a __zero_reg__
00000001 a __zero_reg__
00000001 a __zero_reg__
00000001 a __zero_reg__
00000001 a __zero_reg__
0000003d a __SP_L__
0000003d a __SP_L__
0000003d a __SP_L__
0000003d a __SP_L__
0000003d a __SP_L__
0000003e a __SP_H__
0000003e a __SP_H__
0000003e a __SP_H__
0000003e a __SP_H__
0000003e a __SP_H__
0000003f a __SREG__
0000003f a __SREG__
0000003f a __SREG__
0000003f a __SREG__
0000003f a __SREG__
00000068 t __c.2013
00000079 t __c.2008
0000008f t __c.2001
000000a1 t __c.1995
000000b2 t __c.1990
000000c0 t __c.1987
000000d2 t __c.1985
000000e1 t __c.1981
000000fb t __c.1977
00000103 t __c.1975
00000112 t __c.1972
00000136 t __c.1969
0000014e t __c.1967
00000166 t __c.1965
00000191 t __c.1963
000001a3 t __c.1961
000001b4 t __c.1959
000001c4 t __c.1957
000001d8 t __c.1955
000001f0 t __c.1953
00000209 t __c.1951
0000021c t __c.1949
0000022d t __c.1947
0000023e t __c.1945
00000258 t __c.1942
00000283 t __c.1939
000002a0 t __c.1935
000002cb t __c.1931
000002e8 t __c.1929
000002ff t __c.1924
0000032d t __c.1922
00000357 t __c.1920
0000037f t __c.1918
000003ad t __c.1983
000003bc t __c.1976
000003cb t __c.1949
000003e4 t __c.1947
000003f9 t __c.1939
00000408 t __c.1934
00000418 t __c.1931
0000042a t __c.1922
00000444 t __c.1920
00000456 t __c.1918
0000045f W __stack
00000467 t __c.1914
00000491 t __c.1873
000004a4 t __c.1861
000004bd t __c.1840
000004d6 t __c.1832
000004db t __c.1830
000004df t __c.1828
000004e3 t __c.1826
000004e8 t __c.1824
000004ec t __c.1818
000004fa t __c.1816
00000505 t __c.1811
0000051a T __ctors_end
0000051a T __ctors_start
0000051a T __dtors_end
0000051a T __dtors_start
0000051a W __init
0000051a T __trampolines_end
0000051a T __trampolines_start
00000526 T __do_copy_data
0000053c T __do_clear_bss
00000544 t .do_clear_bss_loop
00000546 t .do_clear_bss_start
00000554 T __bad_interrupt
00000554 W __vector_1
00000554 W __vector_10
00000554 W __vector_11
00000554 W __vector_12
00000554 W __vector_13
00000554 W __vector_14
00000554 W __vector_15
00000554 W __vector_16
00000554 W __vector_17
00000554 W __vector_18
00000554 W __vector_19
00000554 W __vector_2
00000554 W __vector_20
00000554 W __vector_3
00000554 W __vector_4
00000554 W __vector_5
00000554 W __vector_6
00000554 W __vector_7
00000554 W __vector_8
00000554 W __vector_9
00000558 T port_init
00000570 T init_devices
00000586 T spi_init
0000058e T SPI_transmit
00000598 T SPI_receive
000005a4 T SD_sendCommand
00000680 T SD_init
00000782 T SD_erase
000007f4 T SD_readSingleBlock
00000850 T SD_writeSingleBlock
000008e0 T uart0_init
000008f4 T receiveByte
000008fe T transmitByte
00000906 T transmitString_F
00000928 T transmitString
00000940 T transmitHex
000009c4 T getFirstSector
00000a06 T getSetNextCluster
00000af2 T getSetFreeCluster
00000c2a T getBootSectorData
00000dc0 T convertFileName
00000e96 T searchNextFreeCluster
00000f88 T displayMemory
0000104c T memoryStatistics
000012a6 T freeMemoryUpdate
00001366 T findFiles
000016d8 T readFile
00001864 T deleteFile
00001884 T writeFile
00001fcc T main
0000261a T __umulhisi3
00002638 T __muluhisi3
0000264e T __mulsi3
0000266e T __udivmodsi4
0000267a t __udivmodsi4_loop
00002694 t __udivmodsi4_ep
000026b2 T __tablejump2__
000026b6 T __tablejump__
000026be W exit
000026be T _exit
000026c0 t __stop_program
000026c2 A __data_load_start
000026c2 T _etext
000026e2 A __data_load_end
00800060 D __data_start
00800080 B appendFileLocation
00800080 B __bss_start
00800080 D __data_end
00800080 D _edata
00800084 B firstDataSector
00800088 B fileSize
0080008c B bytesPerSector
0080008e B totalClusters
00800092 B rootCluster
00800096 B startBlock
0080009a B buffer
0080029a B sectorPerCluster
0080029c B unusedSectors
008002a0 B SDHC_flag
008002a1 B totalBlocks
008002a5 B reservedSectorCount
008002a7 B appendStartCluster
008002ab B cardType
008002ac B freeClusterCountUpdated
008002ad B appendFileSector
008002b1 B __bss_end
008002b1 N _end
00810000 N __eeprom_end
